[
  {
    "name": "id",
    "dbType": "increments",
    "htmlType": "",
    "validations": "",
    "searchable": false,
    "fillable": false,
    "primary": true,
    "inForm": false,
    "inIndex": false
  },
  {
    "name": "title",
    "dbType": "string",
    "htmlType": "text",
    "validations": "required",
    "searchable": true,
    "inForm": true,
    "inIndex": true
  },
  {
    "name": "description",
    "dbType": "text:nullable",
    "htmlType": "text",
    "validations": "",
    "searchable": true,
    "fillable": true,
    "inForm": true,
    "inIndex": true
  },
  {
    "name": "download_link",
    "dbType": "string:nullable",
    "htmlType": "text",
    "validations": "",
    "searchable": true,
    "fillable": true,
    "inForm": true,
    "inIndex": true
  },
  {
    "name": "count",
    "dbType": "integer:nullable",
    "htmlType": "text",
    "validations": "",
    "searchable": true,
    "fillable": true,
    "inForm": true,
    "inIndex": true
  },
  {
    "name": "price",
    "dbType": "integer:nullable",
    "htmlType": "text",
    "validations": "",
    "searchable": true,
    "fillable": true,
    "inForm": true,
    "inIndex": true
  },
  {
    "name": "discount",
    "dbType": "integer:nullable",
    "htmlType": "text",
    "validations": "",
    "searchable": true,
    "fillable": true,
    "inForm": true,
    "inIndex": true
  },
  {
    "name": "image_main",
    "dbType": "string:nullable",
    "htmlType": "text",
    "validations": "",
    "searchable": true,
    "fillable": true,
    "inForm": true,
    "inIndex": true
  },
  {
    "name": "image_two",
    "dbType": "string:nullable",
    "htmlType": "text",
    "validations": "",
    "searchable": true,
    "fillable": true,
    "inForm": true,
    "inIndex": true
  },
  {
    "name": "image_three",
    "dbType": "string:nullable",
    "htmlType": "text",
    "validations": "",
    "searchable": true,
    "fillable": true,
    "inForm": true,
    "inIndex": true
  },
  {
    "name": "image_four",
    "dbType": "string:nullable",
    "htmlType": "text",
    "validations": "",
    "searchable": true,
    "fillable": true,
    "inForm": true,
    "inIndex": true
  },
  {
    "name": "image_five",
    "dbType": "string:nullable",
    "htmlType": "text",
    "validations": "",
    "searchable": true,
    "fillable": true,
    "inForm": true,
    "inIndex": true
  },
  {
    "name": "image_five",
    "dbType": "string:nullable",
    "htmlType": "text",
    "validations": "",
    "searchable": true,
    "fillable": true,
    "inForm": true,
    "inIndex": true
  }
]